{
    "$schema": "https://schemas.wp.org/trunk/block.json",
    "apiVersion": 2,
    "name": "sparkle-blocks/latest-post",
    "version": "0.1.0",
    "title": "Sparkle 2 Latest Post",
    "category": "widgets",
    "icon": "admin-post",
    "description": "Display and filter latest posts.",
    "keywords": [
        "post",
        "latest"
    ],
    "supports": {
        "html": false,
        "align": [
            "left",
            "right",
            "center"
        ],
        "color": {
            "text": true,
            "link": true,
            "gradients": true,
            "background": true
        },
        "spacing": {
            "margin": true,
            "padding": true,
            "blockGap": true
        }
    },
    "textdomain": "laetst-post",
    "editorStyle": "file:./index.css",
    "attributes": {
        "postType": {
            "type": "string",
            "default": "post"
        },
        "numberOfPosts": {
            "type": "number",
            "default": 5
        },
        "displayFeatureImage": {
            "type": "boolean",
            "default": true
        },
        "order": {
            "type": "string",
            "default": "desc"
        },
        "orderBy": {
            "type": "string",
            "default": "date"
        },
        "categoryId": {
            "type": "number",
            "default": 1
        },
        "categories": {
            "type": "array",
            "items": {
                "type": "object"
            }
        },
        "column": {
            "type": "number",
            "default": 2
        },
        "tabColumn": {
            "type": "number",
            "default": 2
        },
        "style": {
            "type": "string"
        },
        "showCategory": {
            "type": "boolean",
            "default": true
        },
        "categoryStyle": {
            "type": "string",
            "default": "normal"
        },
        "categoryDevider": {
            "type": "string",
            "default": "-"
        },
        "enableMeta": {
            "type": "boolean",
            "default": true
        },
        "enableAuthor": {
            "type": "boolean",
            "default": true
        },
        "enableAuthorImage": {
            "type": "boolean",
            "default": true
        },
        "enableComment": {
            "type": "boolean",
            "default": true
        },
        "enableDate": {
            "type": "boolean",
            "default": true
        },
        "enableExcerpt": {
            "type": "boolean",
            "default": true
        },
        "enableExcerptLength": {
            "type": "boolean",
            "default": true
        },
        "excerptLength": {
            "type": "number",
            "default": 20
        },
        "readMoreText": {
            "type": "string"
        },
        "titleColor": {
            "type": "string"
        },
        "titleMargin": {
            "type": "object"
        },
        "titlePadding": {
            "type": "object"
        },
        "typography": {
            "type": "object",
            "default": {
                "desktop": {
                    "size": "20px",
                    "cSize": "",
                    "type": "default",
                    "font": "",
                    "weight": "",
                    "line": 14,
                    "space": 3
                },
                "tablet": {
                    "size": "10",
                    "cSize": "",
                    "type": "default",
                    "font": "",
                    "weight": "",
                    "line": 14,
                    "space": 3
                },
                "mobile": {
                    "size": "10",
                    "cSize": "",
                    "type": "default",
                    "font": "",
                    "weight": "",
                    "line": 14,
                    "space": 3
                }
            }
        }
    }
}